{"code":200,"result":true,"message":"Success","data":{"pageSize":20,"pageNumber":1,"totalRecords":6000,"totalPages":300,"content":[{"productList":[{"id":"2601160527381620500","nameEn":"Smart Fully Enclosed Cat Litter Box","sku":"CJYD2731719","isCollect":0,"listedNum":8,"bigImage":"https://oss-cf.cjdropshipping.com/product/2026/01/16/05/2ba585fa-1b3a-4d1d-af02-6edb2d516ff2_trans.jpeg","sellPrice":"117.35","nowPrice":null,"authorityStatus":"1","addMarkStatus":0,"isVedio":0,"productType":"0","isAut":"0","categoryId":"2410110342571606700","threeCategoryName":null,"twoCategoryId":null,"twoCategoryName":null,"oneCategoryId":null,"oneCategoryName":null,"directMinOrderNum":null,"supplierName":null,"zoneRecommendJson":null,"createAt":null,"setRecommendedTime":null,"autStatus":"1","isList":0,"isAd":0,"activityId":null,"isPersonalized":0,"saleStatus":null,"syncListedProductStatus":null,"videoList":[],"deliveryCycle":null,"warehouseInventoryNum":20614,"discountPrice":null,"discountPriceRate":null,"myProduct":false,"currency":null,"totalVerifiedInventory":0,"totalUnVerifiedInventory":null,"verifiedWarehouse":2,"customization":null,"hasCECertification":null,"description":null,"spu":null,"inventoryInfo":null,"variantKeyEn":null,"variantInventories":null,"propertyKey":null,"isVideo":0},{"id":"1565949097763418112","nameEn":"Electric Fully Enclosed Smart Cat Litter Box","sku":"CJJT1555396","isCollect":0,"listedNum":285,"bigImage":"https://cf.cjdropshipping.com/8d79aca9-de4b-4638-bfa8-f296b2b17b98.jpg","sellPrice":"1.08 -- 181.59","nowPrice":null,"authorityStatus":"1","addMarkStatus":0,"isVedio":0,"productType":"0","isAut":"0","categoryId":"87CF251F-8D11-4DE0-A154-9694D9858EB3","threeCategoryName":null,"twoCategoryId":null,"twoCategoryName":null,"oneCategoryId":null,"oneCategoryName":null,"directMinOrderNum":null,"supplierName":null,"zoneRecommendJson":null,"createAt":null,"setRecommendedTime":null,"autStatus":"1","isList":0,"isAd":0,"activityId":null,"isPersonalized":0,"saleStatus":null,"syncListedProductStatus":null,"videoList":[],"deliveryCycle":null,"warehouseInventoryNum":188931,"discountPrice":null,"discountPriceRate":null,"myProduct":false,"currency":null,"totalVerifiedInventory":1,"totalUnVerifiedInventory":null,"verifiedWarehouse":1,"customization":null,"hasCECertification":null,"description":null,"spu":null,"inventoryInfo":null,"variantKeyEn":null,"variantInventories":null,"propertyKey":null,"isVideo":0},{"id":"2406140627461615600","nameEn":"Automatic Litter Box Cat Toilet Smart Pooper Scooper","sku":"CJYD2060305","isCollect":0,"listedNum":428,"bigImage":"https://cf.cjdropshipping.com/quick/product/74b97501-e616-40b9-a7e2-aad9e5445da7.jpg","sellPrice":"119.40","nowPrice":null,"authorityStatus":"1","addMarkStatus":0,"isVedio":0,"productType":"0","isAut":"0","categoryId":"2410110342321607200","threeCategoryName":null,"twoCategoryId":null,"twoCategoryName":null,"oneCategoryId":null,"oneCategoryName":null,"directMinOrderNum":null,"supplierName":null,"zoneRecommendJson":null,"createAt":null,"setRecommendedTime":null,"autStatus":"1","isList":0,"isAd":0,"activityId":null,"isPersonalized":0,"saleStatus":null,"syncListedProductStatus":null,"videoList":[],"deliveryCycle":null,"warehouseInventoryNum":57617,"discountPrice":null,"discountPriceRate":null,"myProduct":false,"currency":null,"totalVerifiedInventory":0,"totalUnVerifiedInventory":null,"verifiedWarehouse":2,"customization":null,"hasCECertification":null,"description":null,"spu":null,"inventoryInfo":null,"variantKeyEn":null,"variantInventories":null,"propertyKey":null,"isVideo":0},{"id":"2512110647511616400","nameEn":"Smart Cat Litter Box Thickened Trash Bags With Drawstring","sku":"CJYD2639792","isCollect":0,"listedNum":1,"bigImage":"https://oss-cf.cjdropshipping.com/product/2025/12/11/06/7ad7f15b-ab35-46dc-891b-6d0394246605_trans.jpeg","sellPrice":"1.00 -- 5.03","nowPrice":null,"authorityStatus":"1","addMarkStatus":0,"isVedio":0,"productType":"0","isAut":"0","categoryId":"87CF251F-8D11-4DE0-A154-9694D9858EB3","threeCategoryName":null,"twoCategoryId":null,"twoCategoryName":null,"oneCategoryId":null,"oneCategoryName":null,"directMinOrderNum":null,"supplierName":null,"zoneRecommendJson":null,"createAt":null,"setRecommendedTime":null,"autStatus":"1","isList":0,"isAd":0,"activityId":null,"isPersonalized":0,"saleStatus":null,"syncListedProductStatus":null,"videoList":[],"deliveryCycle":null,"warehouseInventoryNum":24772,"discountPrice":null,"discountPriceRate":null,"myProduct":false,"currency":null,"totalVerifiedInventory":0,"totalUnVerifiedInventory":null,"verifiedWarehouse":2,"customization":null,"hasCECertification":null,"description":null,"spu":null,"inventoryInfo":null,"variantKeyEn":null,"variantInventories":null,"propertyKey":null,"isVideo":0},{"id":"1574230028135706624","nameEn":"Fully Automatic Smart Cat Toilet Shovel Feces Fully Enclosed Deodorant Cat Litter Box","sku":"CJMY1572509","isCollect":0,"listedNum":141,"bigImage":"https://cf.cjdropshipping.com/c7da49fd-0a33-4be4-9672-78021771a90a.jpg","sellPrice":"200.16","nowPrice":null,"authorityStatus":"1","addMarkStatus":0,"isVedio":0,"productType":"0","isAut":"0","categoryId":"2410110342321607200","threeCategoryName":null,"twoCategoryId":null,"twoCategoryName":null,"oneCategoryId":null,"oneCategoryName":null,"directMinOrderNum":null,"supplierName":null,"zoneRecommendJson":null,"createAt":null,"setRecommendedTime":null,"autStatus":"1","isList":0,"isAd":0,"activityId":null,"isPersonalized":0,"saleStatus":null,"syncListedProductStatus":null,"videoList":[],"deliveryCycle":null,"warehouseInventoryNum":13391,"discountPrice":null,"discountPriceRate":null,"myProduct":false,"currency":null,"totalVerifiedInventory":0,"totalUnVerifiedInventory":null,"verifiedWarehouse":2,"customization":null,"hasCECertification":null,"description":null,"spu":null,"inventoryInfo":null,"variantKeyEn":null,"variantInventories":null,"propertyKey":null,"isVideo":0},{"id":"1563459374436331520","nameEn":"Smart MAX Fully Automatic Cat Litter Box Large Electric Fully Enclosed","sku":"CJJT1551144","isCollect":0,"listedNum":325,"bigImage":"https://cf.cjdropshipping.com/2a453bce-9663-49fa-8f82-e19b452c521a.jpg","sellPrice":"426.25","nowPrice":null,"authorityStatus":"1","addMarkStatus":0,"isVedio":1,"productType":"0","isAut":"0","categoryId":"87CF251F-8D11-4DE0-A154-9694D9858EB3","threeCategoryName":null,"twoCategoryId":null,"twoCategoryName":null,"oneCategoryId":null,"oneCategoryName":null,"directMinOrderNum":null,"supplierName":null,"zoneRecommendJson":null,"createAt":null,"setRecommendedTime":null,"autStatus":"1","isList":0,"isAd":0,"activityId":null,"isPersonalized":0,"saleStatus":null,"syncListedProductStatus":null,"videoList":["00bd2ce7044871efbfde4531859c0102","f02ecc7fe49271eebfac6733a68f0102"],"deliveryCycle":null,"warehouseInventoryNum":14429,"discountPrice":null,"discountPriceRate":null,"myProduct":false,"currency":null,"totalVerifiedInventory":0,"totalUnVerifiedInventory":null,"verifiedWarehouse":2,"customization":null,"hasCECertification":null,"description":null,"spu":null,"inventoryInfo":null,"variantKeyEn":null,"variantInventories":null,"propertyKey":null,"isVideo":1},{"id":"1932363743014338561","nameEn":"60L Automatic Cat Litter Box, Smart App Control, Deodorizing, Infrared Sensor, Suitable For Multiple Cats","sku":"CJFT2398190","isCollect":0,"listedNum":229,"bigImage":"https://cf.cjdropshipping.com/18f614cb-6909-40a2-a031-1d251708ebae.png","sellPrice":"193.67","nowPrice":null,"authorityStatus":"1","addMarkStatus":1,"isVedio":0,"productType":"5","isAut":"0","categoryId":"2410110356301618100","threeCategoryName":null,"twoCategoryId":null,"twoCategoryName":null,"oneCategoryId":null,"oneCategoryName":null,"directMinOrderNum":null,"supplierName":null,"zoneRecommendJson":null,"createAt":null,"setRecommendedTime":null,"autStatus":"1","isList":0,"isAd":0,"activityId":null,"isPersonalized":0,"saleStatus":null,"syncListedProductStatus":null,"videoList":[],"deliveryCycle":null,"warehouseInventoryNum":242,"discountPrice":null,"discountPriceRate":null,"myProduct":false,"currency":null,"totalVerifiedInventory":242,"totalUnVerifiedInventory":null,"verifiedWarehouse":1,"customization":null,"hasCECertification":null,"description":null,"spu":null,"inventoryInfo":null,"variantKeyEn":null,"variantInventories":null,"propertyKey":null,"isVideo":0},{"id":"1647200059907387392","nameEn":"7L Large Capacity Quick Cleaning Smart Toilet APP Remote Control Auto Self-cleaning Automatic Cat Litter Box","sku":"CJMY1735383","isCollect":0,"listedNum":322,"bigImage":"https://cf.cjdropshipping.com/964e3221-26a0-43c3-b695-2cd7b7f93c70.jpg","sellPrice":"243.40","nowPrice":null,"authorityStatus":"1","addMarkStatus":0,"isVedio":0,"productType":"0","isAut":"0","categoryId":"2410110342321607200","threeCategoryName":null,"twoCategoryId":null,"twoCategoryName":null,"oneCategoryId":null,"oneCategoryName":null,"directMinOrderNum":null,"supplierName":null,"zoneRecommendJson":null,"createAt":null,"setRecommendedTime":null,"autStatus":"1","isList":0,"isAd":0,"activityId":null,"isPersonalized":0,"saleStatus":null,"syncListedProductStatus":null,"videoList":[],"deliveryCycle":null,"warehouseInventoryNum":14293,"discountPrice":null,"discountPriceRate":null,"myProduct":false,"currency":null,"totalVerifiedInventory":0,"totalUnVerifiedInventory":null,"verifiedWarehouse":2,"customization":null,"hasCECertification":null,"description":null,"spu":null,"inventoryInfo":null,"variantKeyEn":null,"variantInventories":null,"propertyKey":null,"isVideo":0},{"id":"2001503214435221506","nameEn":"Cat Litter Robot Enclosure, 41.3 In Self Cleaning Litter Box Cabinet, With Drawer & Detachable Divider, Automatic Litterbox Enclosure With Built-in Power Outlet, Fits Most Smart Litterboxes","sku":"CJFU2655658","isCollect":0,"listedNum":2,"bigImage":"https://cf.cjdropshipping.com/17660160/e87caed5-6640-49a1-82ac-d19641cdeb4a.jpg","sellPrice":"146.15","nowPrice":null,"authorityStatus":"1","addMarkStatus":1,"isVedio":0,"productType":"5","isAut":"0","categoryId":"2410301014451618100","threeCategoryName":null,"twoCategoryId":null,"twoCategoryName":null,"oneCategoryId":null,"oneCategoryName":null,"directMinOrderNum":null,"supplierName":null,"zoneRecommendJson":null,"createAt":null,"setRecommendedTime":null,"autStatus":"1","isList":0,"isAd":0,"activityId":null,"isPersonalized":0,"saleStatus":null,"syncListedProductStatus":null,"videoList":[],"deliveryCycle":null,"warehouseInventoryNum":116,"discountPrice":null,"discountPriceRate":null,"myProduct":false,"currency":null,"totalVerifiedInventory":116,"totalUnVerifiedInventory":null,"verifiedWarehouse":1,"customization":null,"hasCECertification":null,"description":null,"spu":null,"inventoryInfo":null,"variantKeyEn":null,"variantInventories":null,"propertyKey":null,"isVideo":0},{"id":"1457162026815197184","nameEn":"Cat Litter Prevention Cat Litter Box Foot Pad","sku":"CJGY1344697","isCollect":0,"listedNum":121,"bigImage":"https://cf.cjdropshipping.com/1db0828b-a76f-4ae9-8cc7-eebad57d8861.jpg","sellPrice":"2.84 -- 3.00","nowPrice":null,"authorityStatus":"1","addMarkStatus":0,"isVedio":0,"productType":"0","isAut":"0","categoryId":"2410110357391611900","threeCategoryName":null,"twoCategoryId":null,"twoCategoryName":null,"oneCategoryId":null,"oneCategoryName":null,"directMinOrderNum":null,"supplierName":null,"zoneRecommendJson":null,"createAt":null,"setRecommendedTime":null,"autStatus":"1","isList":0,"isAd":0,"activityId":null,"isPersonalized":0,"saleStatus":null,"syncListedProductStatus":null,"videoList":[],"deliveryCycle":null,"warehouseInventoryNum":317479,"discountPrice":null,"discountPriceRate":null,"myProduct":false,"currency":null,"totalVerifiedInventory":0,"totalUnVerifiedInventory":null,"verifiedWarehouse":2,"customization":null,"hasCECertification":null,"description":null,"spu":null,"inventoryInfo":null,"variantKeyEn":null,"variantInventories":null,"propertyKey":null,"isVideo":0},{"id":"1955894820990779393","nameEn":"Large Cat Litter Box","sku":"CJFT2456153","isCollect":0,"listedNum":24,"bigImage":"https://cf.cjdropshipping.com/6ad26428-c687-4c17-a222-b03f645b5df8.png","sellPrice":"14.27","nowPrice":null,"authorityStatus":"1","addMarkStatus":1,"isVedio":0,"productType":"5","isAut":"0","categoryId":"2410110356301618100","threeCategoryName":null,"twoCategoryId":null,"twoCategoryName":null,"oneCategoryId":null,"oneCategoryName":null,"directMinOrderNum":null,"supplierName":null,"zoneRecommendJson":null,"createAt":null,"setRecommendedTime":null,"autStatus":"1","isList":0,"isAd":0,"activityId":null,"isPersonalized":0,"saleStatus":null,"syncListedProductStatus":null,"videoList":[],"deliveryCycle":null,"warehouseInventoryNum":1000,"discountPrice":null,"discountPriceRate":null,"myProduct":false,"currency":null,"totalVerifiedInventory":0,"totalUnVerifiedInventory":null,"verifiedWarehouse":2,"customization":null,"hasCECertification":null,"description":null,"spu":null,"inventoryInfo":null,"variantKeyEn":null,"variantInventories":null,"propertyKey":null,"isVideo":0},{"id":"1990535824830816257","nameEn":"  Cat Litter Box 47x Wood Material   Cat Litter Box Sonoma Oak","sku":"CJTC2599923","isCollect":0,"listedNum":17,"bigImage":"https://cf.cjdropshipping.com/17633376/9238b0e5-f723-464e-84d7-6dfbb034737c.jpg","sellPrice":"38.99 -- 46.34","nowPrice":null,"authorityStatus":"1","addMarkStatus":1,"isVedio":0,"productType":"5","isAut":"0","categoryId":"2410110356161627200","threeCategoryName":null,"twoCategoryId":null,"twoCategoryName":null,"oneCategoryId":null,"oneCategoryName":null,"directMinOrderNum":null,"supplierName":null,"zoneRecommendJson":null,"createAt":null,"setRecommendedTime":null,"autStatus":"1","isList":0,"isAd":0,"activityId":null,"isPersonalized":0,"saleStatus":null,"syncListedProductStatus":null,"videoList":[],"deliveryCycle":null,"warehouseInventoryNum":128,"discountPrice":null,"discountPriceRate":null,"myProduct":false,"currency":null,"totalVerifiedInventory":0,"totalUnVerifiedInventory":null,"verifiedWarehouse":2,"customization":null,"hasCECertification":null,"description":null,"spu":null,"inventoryInfo":null,"variantKeyEn":null,"variantInventories":null,"propertyKey":null,"isVideo":0},{"id":"1955917176631099393","nameEn":"Small Cat Litter Box","sku":"CJFT2456331","isCollect":0,"listedNum":12,"bigImage":"https://cf.cjdropshipping.com/3f00df1b-505b-4754-a2e5-36433739d5df.png","sellPrice":"9.95","nowPrice":null,"authorityStatus":"1","addMarkStatus":1,"isVedio":0,"productType":"5","isAut":"0","categoryId":"2410110356301618100","threeCategoryName":null,"twoCategoryId":null,"twoCategoryName":null,"oneCategoryId":null,"oneCategoryName":null,"directMinOrderNum":null,"supplierName":null,"zoneRecommendJson":null,"createAt":null,"setRecommendedTime":null,"autStatus":"1","isList":0,"isAd":0,"activityId":null,"isPersonalized":0,"saleStatus":null,"syncListedProductStatus":null,"videoList":[],"deliveryCycle":null,"warehouseInventoryNum":1000,"discountPrice":null,"discountPriceRate":null,"myProduct":false,"currency":null,"totalVerifiedInventory":0,"totalUnVerifiedInventory":null,"verifiedWarehouse":2,"customization":null,"hasCECertification":null,"description":null,"spu":null,"inventoryInfo":null,"variantKeyEn":null,"variantInventories":null,"propertyKey":null,"isVideo":0},{"id":"1955910720859045889","nameEn":"Small Cat Litter Box","sku":"CJFT2456296","isCollect":0,"listedNum":12,"bigImage":"https://cf.cjdropshipping.com/28f0b3b2-1b73-447e-8ae4-c83581a14930.png","sellPrice":"16.03","nowPrice":null,"authorityStatus":"1","addMarkStatus":1,"isVedio":0,"productType":"5","isAut":"0","categoryId":"2410110356301618100","threeCategoryName":null,"twoCategoryId":null,"twoCategoryName":null,"oneCategoryId":null,"oneCategoryName":null,"directMinOrderNum":null,"supplierName":null,"zoneRecommendJson":null,"createAt":null,"setRecommendedTime":null,"autStatus":"1","isList":0,"isAd":0,"activityId":null,"isPersonalized":0,"saleStatus":null,"syncListedProductStatus":null,"videoList":[],"deliveryCycle":null,"warehouseInventoryNum":1000,"discountPrice":null,"discountPriceRate":null,"myProduct":false,"currency":null,"totalVerifiedInventory":0,"totalUnVerifiedInventory":null,"verifiedWarehouse":2,"customization":null,"hasCECertification":null,"description":null,"spu":null,"inventoryInfo":null,"variantKeyEn":null,"variantInventories":null,"propertyKey":null,"isVideo":0},{"id":"1955898658854436865","nameEn":"Small Cat Litter Box","sku":"CJFT2456195","isCollect":0,"listedNum":12,"bigImage":"https://cf.cjdropshipping.com/252a1ed1-abb5-4126-80a7-b6e9164df31e.png","sellPrice":"11.29","nowPrice":null,"authorityStatus":"1","addMarkStatus":1,"isVedio":0,"productType":"5","isAut":"0","categoryId":"2410110356301618100","threeCategoryName":null,"twoCategoryId":null,"twoCategoryName":null,"oneCategoryId":null,"oneCategoryName":null,"directMinOrderNum":null,"supplierName":null,"zoneRecommendJson":null,"createAt":null,"setRecommendedTime":null,"autStatus":"1","isList":0,"isAd":0,"activityId":null,"isPersonalized":0,"saleStatus":null,"syncListedProductStatus":null,"videoList":[],"deliveryCycle":null,"warehouseInventoryNum":1000,"discountPrice":null,"discountPriceRate":null,"myProduct":false,"currency":null,"totalVerifiedInventory":0,"totalUnVerifiedInventory":null,"verifiedWarehouse":2,"customization":null,"hasCECertification":null,"description":null,"spu":null,"inventoryInfo":null,"variantKeyEn":null,"variantInventories":null,"propertyKey":null,"isVideo":0},{"id":"1400377571438366720","nameEn":"Large Cat Litter Box Detachable Anti-splashing Cat Litter Box Cat Pet Supplies","sku":"CJMY1157955","isCollect":0,"listedNum":388,"bigImage":"https://cf.cjdropshipping.com/1622710126684.jpg","sellPrice":"0.70 -- 1.54","nowPrice":null,"authorityStatus":"1","addMarkStatus":0,"isVedio":0,"productType":"0","isAut":"0","categoryId":"2410110342321607200","threeCategoryName":null,"twoCategoryId":null,"twoCategoryName":null,"oneCategoryId":null,"oneCategoryName":null,"directMinOrderNum":null,"supplierName":null,"zoneRecommendJson":null,"createAt":null,"setRecommendedTime":null,"autStatus":"1","isList":0,"isAd":0,"activityId":null,"isPersonalized":0,"saleStatus":null,"syncListedProductStatus":null,"videoList":[],"deliveryCycle":null,"warehouseInventoryNum":234680,"discountPrice":null,"discountPriceRate":null,"myProduct":false,"currency":null,"totalVerifiedInventory":0,"totalUnVerifiedInventory":null,"verifiedWarehouse":2,"customization":null,"hasCECertification":null,"description":null,"spu":null,"inventoryInfo":null,"variantKeyEn":null,"variantInventories":null,"propertyKey":null,"isVideo":0},{"id":"1379315780621045760","nameEn":"Rub Feet Cat Toilet Cat Litter Rub Feet Cat Litter Box","sku":"CJCC1067791","isCollect":0,"listedNum":71,"bigImage":"https://cf.cjdropshipping.com/1617689200275.jpg","sellPrice":"2.82","nowPrice":null,"authorityStatus":"1","addMarkStatus":0,"isVedio":0,"productType":"0","isAut":"0","categoryId":"C1394E10-1EDF-4107-AA93-F142B44C3136","threeCategoryName":null,"twoCategoryId":null,"twoCategoryName":null,"oneCategoryId":null,"oneCategoryName":null,"directMinOrderNum":null,"supplierName":null,"zoneRecommendJson":null,"createAt":null,"setRecommendedTime":null,"autStatus":"1","isList":0,"isAd":0,"activityId":null,"isPersonalized":0,"saleStatus":null,"syncListedProductStatus":null,"videoList":[],"deliveryCycle":null,"warehouseInventoryNum":280000,"discountPrice":null,"discountPriceRate":null,"myProduct":false,"currency":null,"totalVerifiedInventory":0,"totalUnVerifiedInventory":null,"verifiedWarehouse":2,"customization":null,"hasCECertification":null,"description":null,"spu":null,"inventoryInfo":null,"variantKeyEn":null,"variantInventories":null,"propertyKey":null,"isVideo":0},{"id":"1955892138429669377","nameEn":"Small Cat Litter Box","sku":"CJFT2456135","isCollect":0,"listedNum":20,"bigImage":"https://cf.cjdropshipping.com/a4c5498b-baab-4002-aa30-9d4b61afea38.png","sellPrice":"10.72","nowPrice":null,"authorityStatus":"1","addMarkStatus":1,"isVedio":0,"productType":"5","isAut":"0","categoryId":"2410110356301618100","threeCategoryName":null,"twoCategoryId":null,"twoCategoryName":null,"oneCategoryId":null,"oneCategoryName":null,"directMinOrderNum":null,"supplierName":null,"zoneRecommendJson":null,"createAt":null,"setRecommendedTime":null,"autStatus":"1","isList":0,"isAd":0,"activityId":null,"isPersonalized":0,"saleStatus":null,"syncListedProductStatus":null,"videoList":[],"deliveryCycle":null,"warehouseInventoryNum":1000,"discountPrice":null,"discountPriceRate":null,"myProduct":false,"currency":null,"totalVerifiedInventory":0,"totalUnVerifiedInventory":null,"verifiedWarehouse":2,"customization":null,"hasCECertification":null,"description":null,"spu":null,"inventoryInfo":null,"variantKeyEn":null,"variantInventories":null,"propertyKey":null,"isVideo":0},{"id":"1990535808473030657","nameEn":"  Cat Litter Box 42x Wood Material   Cat Litter Box 42x Wood Material","sku":"CJTC2599922","isCollect":0,"listedNum":22,"bigImage":"https://cf.cjdropshipping.com/17633376/dbd8c251-c55d-40ec-a5b5-66eddd035dd5.jpg","sellPrice":"32.88 -- 49.26","nowPrice":null,"authorityStatus":"1","addMarkStatus":1,"isVedio":0,"productType":"5","isAut":"0","categoryId":"2410110356161627200","threeCategoryName":null,"twoCategoryId":null,"twoCategoryName":null,"oneCategoryId":null,"oneCategoryName":null,"directMinOrderNum":null,"supplierName":null,"zoneRecommendJson":null,"createAt":null,"setRecommendedTime":null,"autStatus":"1","isList":0,"isAd":0,"activityId":null,"isPersonalized":0,"saleStatus":null,"syncListedProductStatus":null,"videoList":[],"deliveryCycle":null,"warehouseInventoryNum":599,"discountPrice":null,"discountPriceRate":null,"myProduct":false,"currency":null,"totalVerifiedInventory":0,"totalUnVerifiedInventory":null,"verifiedWarehouse":2,"customization":null,"hasCECertification":null,"description":null,"spu":null,"inventoryInfo":null,"variantKeyEn":null,"variantInventories":null,"propertyKey":null,"isVideo":0},{"id":"1416209020301217792","nameEn":"Pet Cat Litter Box With Shovel High-side Polyester Cat Litter Box","sku":"CJMY1216611","isCollect":0,"listedNum":231,"bigImage":"https://cf.cjdropshipping.com/e9f24a99-2a5e-41d1-8e7e-c048b33d13ea.jpg","sellPrice":"1.59","nowPrice":null,"authorityStatus":"1","addMarkStatus":0,"isVedio":0,"productType":"0","isAut":"0","categoryId":"2410110342321607200","threeCategoryName":null,"twoCategoryId":null,"twoCategoryName":null,"oneCategoryId":null,"oneCategoryName":null,"directMinOrderNum":null,"supplierName":null,"zoneRecommendJson":null,"createAt":null,"setRecommendedTime":null,"autStatus":"1","isList":0,"isAd":0,"activityId":null,"isPersonalized":0,"saleStatus":null,"syncListedProductStatus":null,"videoList":[],"deliveryCycle":null,"warehouseInventoryNum":146566,"discountPrice":null,"discountPriceRate":null,"myProduct":false,"currency":null,"totalVerifiedInventory":0,"totalUnVerifiedInventory":null,"verifiedWarehouse":2,"customization":null,"hasCECertification":null,"description":null,"spu":null,"inventoryInfo":null,"variantKeyEn":null,"variantInventories":null,"propertyKey":null,"isVideo":0}],"relatedCategoryList":[{"id":"2410110342571606700","name":"Pet Bags","currentLevel":3},{"id":"87CF251F-8D11-4DE0-A154-9694D9858EB3","name":"Home Office Storage","currentLevel":3},{"id":"2410110342321607200","name":"Dog Training Pads & Diapers","currentLevel":3},{"id":"2410110356301618100","name":"Pet Furniture Tools","currentLevel":3},{"id":"2410301014451618100","name":"Furniture","currentLevel":3},{"id":"2410110357391611900","name":"Pet Mats","currentLevel":3},{"id":"2410110356161627200","name":"Cat Trees & Condos","currentLevel":3},{"id":"C1394E10-1EDF-4107-AA93-F142B44C3136","name":"Storage Bottles & Jars","currentLevel":3}],"keyWord":"smart cat litter box","keyWordOld":"smart cat litter box"}]},"requestId":"5f834662d9f742a9bd8f0dff88aba365","success":true}
